NOTA 5



==================================
1.
5.0
BUEN TRABAJO!!
==================================

2.

5
- Buen trabajo


==================================
3.
----------------------------------
p1

5
- Buen trabajo
----------------------------------
p2

5
- Buen trabajo
==================================
4.
5
- BUEN TRABAJO!!